%YAML 1.1
%TAG !u! tag:unity3d.com,2011:
--- !u!1045 &1
EditorBuildSettings:
  m_ObjectHideFlags: 0
  serializedVersion: 2
  m_Scenes:
  - enabled: 1
    path: Assets/Scenes/StartScene.unity
    guid: dc7c0541fe0c34d4d93e647f4b356b4a
  - enabled: 1
    path: Assets/Scenes/BattleScene.unity
    guid: 48a6d814f5f4dab479c002ce26ce49a0
  m_configObjects: {}
